<?xml version="1.0" encoding="UTF-8"?>
<svg width="217px" height="203px" viewBox="0 0 217 203" version="1.1" xmlns="http://www.w3.org/2000/svg" xmlns:xlink="http://www.w3.org/1999/xlink">
    <!-- Generator: Sketch 50 (54983) - http://www.bohemiancoding.com/sketch -->
    <title>Group</title>
    <desc>Created with Sketch.</desc>
    <defs></defs>
    <g id="z" stroke="none" stroke-width="1" fill="none" fill-rule="evenodd">
        <g id="Home-LG" transform="translate(-847.000000, -1361.000000)">
            <g id="Group" transform="translate(847.000000, 1361.000000)">
                <rect id="Rectangle-8-Copy" fill="#FFFFFF" x="0" y="0" width="217" height="202"></rect>
                <path d="M113.67192,114.950118 L137.738524,90.4632884 L161.603369,115.85587 L161.603369,99.6153949 L177.79134,99.6153949 L177.79134,133.072321 L201.045182,157.815684 L187.757681,157.815684 L187.757681,200.642555 L87.7179364,200.642555 L113.67192,114.950118 Z M138.607091,117.118476 C135.410421,117.118476 132.816168,119.71678 132.816168,122.917008 C132.816168,126.117236 135.410421,128.715539 138.607091,128.715539 C141.810916,128.715539 144.4066,126.117236 144.4066,122.917008 C144.4066,119.71678 141.810916,117.118476 138.607091,117.118476 Z" id="Stroke-1" stroke="#4E5CD8" stroke-width="3.2" fill="#FFFFFF" stroke-linecap="round" stroke-linejoin="round"></path>
                <path d="M90.8659155,169.162765 C92.8005452,170.206802 94.8375141,171.013632 96.9487839,171.539685 C99.7259589,172.238399 102.612483,172.475607 105.556484,172.196444" id="Stroke-3" stroke="#4E5CD8" stroke-width="3.2" stroke-linecap="round" stroke-linejoin="round"></path>
                <path d="M116.305624,169.162765 C122.668384,165.982239 127.600755,160.686651 130.365785,154.352993 C132.697056,149.001176 133.490587,142.916944 132.270551,136.756298 C130.220715,126.317947 122.91065,118.225341 113.607327,114.661307 C111.132437,113.699652 108.511026,113.065278 105.802574,112.795668 L99.1105064,91.4792286 L91.8976382,88.2496835 L95.8043667,80.964464 L88.473992,77.3225752 L92.042708,68.9704525 L84.3743208,64.5399202 L87.6703056,57.1494522 L73.011007,48.4902344 L65.682083,63.5306874 L83.3385228,119.782443 C77.178861,125.010269 73.2721326,132.593933 72.80936,140.820623" id="Stroke-5" stroke="#4E5CD8" stroke-width="3.2" fill="#FFFFFF" stroke-linecap="round" stroke-linejoin="round"></path>
                <path d="M74.0766938,49.5395607 L96.1125472,118.7951" id="Stroke-9" stroke="#4E5CD8" stroke-width="3.2" stroke-linecap="round" stroke-linejoin="round"></path>
                <path d="M102.941129,145.896537 C94.755233,140.323516 84.2562442,139.196762 75.0716107,142.916931 L72.7959891,140.643173 L72.7959891,140.631602 L59.2863776,127.075839 L51.4391581,127.538691 L51.4968053,119.256542 L43.3498206,119.419986 L42.6191429,110.337973 L33.8193041,109.951781 L33.2817444,101.87213 L16.3637446,100.956552 L16.8912161,117.7219 L58.5484939,159.520281 C54.6573107,169.230037 55.9529306,180.702968 62.9484133,189.439289 C73.2658135,202.338381 92.0371695,204.40241 104.892486,194.047554 C107.101813,192.26413 108.994081,190.239154 110.550554,188.030485 C114.499385,182.448786 116.362829,175.737439 116.006858,169.065146 C115.822387,165.585082 115.036944,162.12382 113.624589,158.836128" id="Stroke-11" stroke="#4E5CD8" stroke-width="3.2" fill="#FFFFFF" stroke-linecap="round" stroke-linejoin="round"></path>
                <path d="M91.9075683,167.979108 C95.5229319,164.894009 100.804567,165.511325 103.71079,169.349934 C106.610047,173.191504 106.030474,178.803601 102.416504,181.8887 C98.8011401,184.972319 93.5181118,184.359444 90.6146753,180.517874 C87.7126321,176.676304 88.293598,171.062727 91.9075683,167.979108 Z" id="Stroke-13" stroke="#4E5CD8" stroke-width="3.2" stroke-linecap="round" stroke-linejoin="round"></path>
                <path d="M17.4130709,102.005878 L67.7807357,153.422869" id="Stroke-15" stroke="#4E5CD8" stroke-width="3.2" stroke-linecap="round" stroke-linejoin="round"></path>
                <path d="M130.782877,154.472196 C135.334738,158.802867 137.786419,165.141105 136.831925,171.780405 C135.252378,182.792351 124.900019,190.456423 113.712294,188.899003 C102.524569,187.34303 94.7341941,177.154663 96.3166829,166.145612" id="Stroke-17" stroke="#4E5CD8" stroke-width="3.2" stroke-linecap="round" stroke-linejoin="round"></path>
                <path d="M107.655137,150.27489 C110.408691,148.493652 114.231689,148.493652 118.148401,149.350277" id="Stroke-19" stroke="#4E5CD8" stroke-width="3.2" stroke-linecap="round" stroke-linejoin="round"></path>
                <path d="M113.680664,158.987793 C112.645928,156.549395 110.647592,153.888899 108.931654,151.721596 C108.463149,151.129851 107.973086,150.557053 107.475838,150.013405 C105.923734,148.332907 104.229353,146.863747 102.408505,145.630701 C103.64444,143.833603 105.551516,142.502905 107.829373,142.046707 C112.352032,141.143057 116.741038,144.008503 117.860565,148.4772 C117.91805,148.641897 117.956853,148.806595 117.985596,148.982952 C118.771708,153.053751 117.262001,157.346647 113.680664,158.987793 Z" id="Stroke-7" stroke="#4E5CD8" stroke-width="3.2" stroke-linecap="round" stroke-linejoin="round"></path>
                <path d="M94.1230469,167.177734 C86.2021484,172.406738 85.7841797,177.15804 92.8691406,181.431641 C103.496582,187.842041 97.8166837,177.673951 97.1347656,174.022461 C96.6801536,171.588134 95.6762474,169.306559 94.1230469,167.177734 Z" id="Path-9" fill="#4E5CD8"></path>
                <path d="M103.786133,145.249756 C108.132067,141.310175 112.298815,142.044875 116.286377,147.453857 C118.108887,149.926025 116.867281,147.962642 112.456543,148.858643 C109.516051,149.455976 107.685241,149.455976 106.964111,148.858643 L103.786133,145.249756 Z" id="Path-10" fill="#4E5CD8"></path>
            </g>
        </g>
    </g>
</svg>