<?xml version="1.0" encoding="UTF-8"?>
<svg width="217px" height="198px" viewBox="0 0 217 198" version="1.1" xmlns="http://www.w3.org/2000/svg" xmlns:xlink="http://www.w3.org/1999/xlink">
    <!-- Generator: Sketch 50 (54983) - http://www.bohemiancoding.com/sketch -->
    <title>Group 14</title>
    <desc>Created with Sketch.</desc>
    <defs></defs>
    <g id="z" stroke="none" stroke-width="1" fill="none" fill-rule="evenodd">
        <g id="Home-LG" transform="translate(-465.000000, -1692.000000)">
            <g id="Group-14" transform="translate(465.000000, 1692.000000)">
                <rect id="Rectangle-8-Copy-3" fill="#FFFFFF" x="0" y="0" width="217" height="198"></rect>
                <g id="Group-9" transform="translate(35.000000, 59.000000)">
                    <path d="M123.366017,21 L105.575974,21 L0,21 L0,137 L136.689755,137 C143.868228,137 149.712784,131.35249 149.980724,124.291188 C150,124.122605 150,123.940613 150,123.772031 L150,116.329502 L150,21" id="Stroke-7" stroke="#4E5CD8" stroke-width="3.2" stroke-linecap="round" stroke-linejoin="round"></path>
                    <polyline id="Stroke-1" stroke="#4E5CD8" stroke-width="3.2" stroke-linecap="round" stroke-linejoin="round" points="69.5092162 121 51.502849 121 18 121 18 107.21262 18 87.6723011 18 73.798135 18 65.4435495 18 45.8935881 18 36 76.6803176 36 124 36"></polyline>
                    <path d="M150,21 L150,117" id="Stroke-2" stroke="#4E5CD8" stroke-width="3.2" stroke-linecap="round" stroke-linejoin="round"></path>
                    <polyline id="Stroke-9" stroke="#4E5CD8" stroke-width="3.2" stroke-linecap="round" stroke-linejoin="round" points="140 112 140 122 124.82243 122 124.403738 122 101.76144 122 84 122"></polyline>
                    <path d="M151,13.240522 C151,5.92813408 144.955049,0 137.499023,0 C130.041042,0 124,5.92813408 124,13.240522 L124,124 C124,116.687612 130.041042,110.759478 137.499023,110.759478 C144.955049,110.759478 151,116.687612 151,124 L151,13.240522 Z" id="Fill-11"></path>
                    <path d="M150,14.240522 C150,6.92813408 143.507275,1 135.49895,1 C127.488527,1 121,6.92813408 121,14.240522 L121,125 C121,117.687612 127.488527,111.759478 135.49895,111.759478 C143.507275,111.759478 150,117.687612 150,125 L150,14.240522 Z" id="Stroke-13" stroke="#4E5CD8" stroke-width="3.2" fill="#4E5CD8" stroke-linecap="round" stroke-linejoin="round"></path>
                    <polyline id="Stroke-15" stroke="#4E5CD8" stroke-width="3.2" stroke-linecap="round" stroke-linejoin="round" points="17 74 51 74 51 92"></polyline>
                    <path d="M66,74 L87,74" id="Stroke-17" stroke="#4E5CD8" stroke-width="3.2" stroke-linecap="round" stroke-linejoin="round"></path>
                    <path d="M76,75 L76,37" id="Stroke-19" stroke="#4E5CD8" stroke-width="3.2" stroke-linecap="round" stroke-linejoin="round"></path>
                    <polyline id="Stroke-21" stroke="#4E5CD8" stroke-width="3.2" stroke-linecap="round" stroke-linejoin="round" points="101 80 101 74 124 74"></polyline>
                    <path d="M101,91 L101,104" id="Stroke-23" stroke="#4E5CD8" stroke-width="3.2" stroke-linecap="round" stroke-linejoin="round"></path>
                    <path d="M101,96 L124,96" id="Stroke-25" stroke="#4E5CD8" stroke-width="3.2" stroke-linecap="round" stroke-linejoin="round"></path>
                    <path d="M101,113 L101,121" id="Stroke-27" stroke="#4E5CD8" stroke-width="3.2" stroke-linecap="round" stroke-linejoin="round"></path>
                    <path d="M51,105 L51,122" id="Stroke-29" stroke="#4E5CD8" stroke-width="3.2" stroke-linecap="round" stroke-linejoin="round"></path>
                    <polygon id="Fill-31" points="11 66 23 66 23 47 11 47"></polygon>
                    <polygon id="Stroke-33" stroke="#4E5CD8" stroke-width="3.2" stroke-linecap="round" stroke-linejoin="round" points="11 66 23 66 23 47 11 47"></polygon>
                    <polygon id="Fill-34" points="11 107 23 107 23 88 11 88"></polygon>
                    <polygon id="Stroke-35" stroke="#4E5CD8" stroke-width="3.2" stroke-linecap="round" stroke-linejoin="round" points="11 107 23 107 23 88 11 88"></polygon>
                    <polygon id="Fill-36" points="85 66 114 66 114 47 85 47"></polygon>
                    <polygon id="Stroke-37" stroke="#4E5CD8" stroke-width="3.2" stroke-linecap="round" stroke-linejoin="round" points="85 66 114 66 114 47 85 47"></polygon>
                    <path d="M47,47 C51.9702355,47 56,51.029333 56,56.0009635 C56,60.970667 51.9702355,65 47,65 C42.0297645,65 38,60.970667 38,56.0009635 C38,51.029333 42.0297645,47 47,47 Z" id="Fill-38"></path>
                    <path d="M38,56.0009635 C38,51.029333 42.0297645,47 47,47 C51.9702355,47 56,51.029333 56,56.0009635 C56,60.970667 51.9702355,65 47,65 C42.0297645,65 38,60.970667 38,56.0009635 Z" id="Stroke-39" stroke="#4E5CD8" stroke-width="3.2" stroke-linecap="round" stroke-linejoin="round"></path>
                    <path d="M91,108.572791 C91,111.020059 89.0181516,113 86.572791,113 L64.4291164,113 C61.9818484,113 60,111.020059 60,108.572791 L60,86.4310239 C60,83.9837558 61.9818484,82 64.4291164,82 L86.572791,82 C89.0181516,82 91,83.9837558 91,86.4310239 L91,108.572791 Z" id="Fill-40"></path>
                    <path d="M91,108.572791 C91,111.020059 89.0181516,113 86.572791,113 L64.4291164,113 C61.9818484,113 60,111.020059 60,108.572791 L60,86.4310239 C60,83.9837558 61.9818484,82 64.4291164,82 L86.572791,82 C89.0181516,82 91,83.9837558 91,86.4310239 L91,108.572791 Z" id="Stroke-41" stroke="#4E5CD8" stroke-width="3.2" stroke-linecap="round" stroke-linejoin="round"></path>
                </g>
            </g>
        </g>
    </g>
</svg>